module taskcli

go 1.21.5

require (
	github.com/boltdb/bolt v1.3.1 // indirect
	github.com/inconshreveable/mousetrap v1.1.0 // indirect
	github.com/mitchellh/go-homedir v1.1.0 // indirect
	github.com/spf13/cobra v1.8.0 // indirect
	github.com/spf13/pflag v1.0.5 // indirect
	golang.org/x/sys v0.15.0 // indirect
)
